{
  "draftId": "0",
  "dataRecord": {
    "entityName": "countries",
    "externalId": {
      "externalId": {},
      "sourceSystem": "unidata"
    },
    "codeAttributes": [
      {
        "value": {},
        "type": "String",
        "name": "countryCode"
      }
    ],
    "simpleAttributes": [
      {
        "value": {},
        "type": "String",
        "name": "countryName"
      }
    ]
  }
}