{
  "draftId": "0",
  "dataRecord": {
    "entityName": "person",
    "etalonId": null,
    "externalId": {
      "externalId": {},
      "sourceSystem": "unidata"
    },
    "simpleAttributes": [
      {
        "value": {},
        "type": "String",
        "name": "lastName"
      },
      {
        "value": {},
        "type": "String",
        "name": "firstName"
      }
    ],
    "validFrom": null,
    "validTo": null
  }
}