{
    "definition": {
        "jobName": "reindexDataJob",
        "displayName": {},
        "description": "Created by Juni framework",
        "enabled": true,
        "error": false,
        "cronExpression": "",
        "parameters": {
            "reindexRecords": true,
            "writeIdLog": false,
            "cleanIndexes": false,
            "processIdLog": false,
            "skipDefaultReport": false,
            "updateMappings": false,
            "reindexRelations": true,
            "reindexTypes": [
                "product"
            ],
            "blockSize": {}
        }
    }
}