{
	"matchingTable": {
		"name": {},
		"displayName": {},
		"description": "Created by Juni framework",
		"columns": [
			{
				"name": "column1",
				"displayName": "Column 1",
				"type": "String"
			},
			{
				"name": "column2",
				"displayName": "Column 2",
				"type": "String"
			}
		],
		"customProperties": []
	}
}